<?xml version="1.0" encoding="utf-8"?>
<!-- Generator: Adobe Illustrator 24.0.1, SVG Export Plug-In . SVG Version: 6.00 Build 0)  -->
<svg version="1.1" id="Layer_1" xmlns="http://www.w3.org/2000/svg" xmlns:xlink="http://www.w3.org/1999/xlink" x="0px" y="0px"
	 viewBox="0 0 991.4 651.6" style="enable-background:new 0 0 991.4 651.6;" xml:space="preserve">
<style type="text/css">
	.st0{fill:none;stroke:#EDEDED;stroke-width:3;stroke-miterlimit:10;}
</style>
<path class="st0" d="M102.3,226.8H552c18.6,0,33.8,15.1,33.8,33.8v51.6c0,18.6-15.1,33.8-33.8,33.8H102.3
	c-18.6,0-33.8-15.1-33.8-33.8v-51.6C68.5,241.9,83.6,226.8,102.3,226.8z"/>
<line class="st0" x1="924.1" y1="286.4" x2="585.7" y2="286.4"/>
</svg>
